[gd_resource type="DynamicFont" load_steps=2 format=2]

[ext_resource path="res://assets/fonts/Mulish-VariableFont_wght.ttf" type="DynamicFontData" id=1]

[resource]
size = 64
font_data = ExtResource( 1 )
